  0
SECTION
  2
HEADER
  9
$ACADVER
  1
AC1009
  9
$DWGCODEPAGE
  3
ansi_1252
  9
$INSBASE
 10
0.0
 20
0.0
 30
0.0
  9
$EXTMIN
 10
-185.5
 20
-100.0
 30
0.0
  9
$EXTMAX
 10
125.0
 20
190.0
 30
0.0
  9
$LIMMIN
 10
0.0
 20
0.0
  9
$LIMMAX
 10
420.0
 20
297.0
  9
$ORTHOMODE
 70
     0
  9
$REGENMODE
 70
     1
  9
$FILLMODE
 70
     1
  9
$QTEXTMODE
 70
     0
  9
$MIRRTEXT
 70
     1
  9
$DRAGMODE
 70
     2
  9
$LTSCALE
 40
1.0
  9
$OSMODE
 70
    37
  9
$ATTMODE
 70
     1
  9
$TEXTSIZE
 40
3.5
  9
$TRACEWID
 40
1.0
  9
$TEXTSTYLE
  7
STANDARD
  9
$CLAYER
  8
0
  9
$CELTYPE
  6
BYLAYER
  9
$CECOLOR
 62
   256
  9
$DIMSCALE
 40
1.0
  9
$DIMASZ
 40
3.556
  9
$DIMEXO
 40
1.0
  9
$DIMDLI
 40
3.75
  9
$DIMRND
 40
0.0
  9
$DIMDLE
 40
0.0
  9
$DIMEXE
 40
1.0
  9
$DIMTP
 40
0.0
  9
$DIMTM
 40
0.0
  9
$DIMTXT
 40
3.5
  9
$DIMCEN
 40
2.5
  9
$DIMTSZ
 40
0.0
  9
$DIMTOL
 70
     0
  9
$DIMLIM
 70
     0
  9
$DIMTIH
 70
     1
  9
$DIMTOH
 70
     1
  9
$DIMSE1
 70
     0
  9
$DIMSE2
 70
     0
  9
$DIMTAD
 70
     1
  9
$DIMZIN
 70
     0
  9
$DIMBLK
  1

  9
$DIMASO
 70
     1
  9
$DIMSHO
 70
     1
  9
$DIMPOST
  1

  9
$DIMAPOST
  1

  9
$DIMALT
 70
     0
  9
$DIMALTD
 70
     3
  9
$DIMALTF
 40
0.0393700787
  9
$DIMLFAC
 40
1.0
  9
$DIMTOFL
 70
     1
  9
$DIMTVP
 40
0.0
  9
$DIMTIX
 70
     0
  9
$DIMSOXD
 70
     0
  9
$DIMSAH
 70
     0
  9
$DIMBLK1
  1

  9
$DIMBLK2
  1

  9
$DIMSTYLE
  2
ISO-25
  9
$DIMCLRD
 70
     0
  9
$DIMCLRE
 70
     0
  9
$DIMCLRT
 70
     0
  9
$DIMTFAC
 40
1.0
  9
$DIMGAP
 40
1.524
  9
$LUNITS
 70
     2
  9
$LUPREC
 70
     2
  9
$SKETCHINC
 40
1.0
  9
$FILLETRAD
 40
10.0
  9
$AUNITS
 70
     0
  9
$AUPREC
 70
     2
  9
$MENU
  1
.
  9
$ELEVATION
 40
0.0
  9
$PELEVATION
 40
0.0
  9
$THICKNESS
 40
0.0
  9
$LIMCHECK
 70
     0
  9
$CHAMFERA
 40
0.0
  9
$CHAMFERB
 40
0.0
  9
$SKPOLY
 70
     0
  9
$TDCREATE
 40
2458883.688002002
  9
$TDUPDATE
 40
2458883.688187593
  9
$TDINDWG
 40
0.0000000116
  9
$TDUSRTIMER
 40
0.0000000116
  9
$USRTIMER
 70
     1
  9
$ANGBASE
 50
0.0
  9
$ANGDIR
 70
     0
  9
$PDMODE
 70
     0
  9
$PDSIZE
 40
-1.0
  9
$PLINEWID
 40
0.0
  9
$COORDS
 70
     1
  9
$SPLFRAME
 70
     0
  9
$SPLINETYPE
 70
     6
  9
$SPLINESEGS
 70
     8
  9
$ATTDIA
 70
     0
  9
$ATTREQ
 70
     1
  9
$HANDLING
 70
     1
  9
$HANDSEED
  5
145
  9
$SURFTAB1
 70
     6
  9
$SURFTAB2
 70
     6
  9
$SURFTYPE
 70
     6
  9
$SURFU
 70
     6
  9
$SURFV
 70
     6
  9
$UCSNAME
  2

  9
$UCSORG
 10
0.0
 20
0.0
 30
0.0
  9
$UCSXDIR
 10
1.0
 20
0.0
 30
0.0
  9
$UCSYDIR
 10
0.0
 20
1.0
 30
0.0
  9
$PUCSNAME
  2

  9
$PUCSORG
 10
0.0
 20
0.0
 30
0.0
  9
$PUCSXDIR
 10
1.0
 20
0.0
 30
0.0
  9
$PUCSYDIR
 10
0.0
 20
1.0
 30
0.0
  9
$USERI1
 70
     0
  9
$USERI2
 70
     0
  9
$USERI3
 70
     0
  9
$USERI4
 70
     0
  9
$USERI5
 70
     0
  9
$USERR1
 40
0.0
  9
$USERR2
 40
0.0
  9
$USERR3
 40
0.0
  9
$USERR4
 40
0.0
  9
$USERR5
 40
0.0
  9
$WORLDVIEW
 70
     1
  9
$SHADEDGE
 70
     3
  9
$SHADEDIF
 70
    70
  9
$TILEMODE
 70
     1
  9
$MAXACTVP
 70
    64
  9
$PLIMCHECK
 70
     0
  9
$PEXTMIN
 10
1.0000000000E+20
 20
1.0000000000E+20
 30
1.0000000000E+20
  9
$PEXTMAX
 10
-1.0000000000E+20
 20
-1.0000000000E+20
 30
-1.0000000000E+20
  9
$PLIMMIN
 10
0.0
 20
0.0
  9
$PLIMMAX
 10
420.0
 20
297.0
  9
$UNITMODE
 70
     0
  9
$VISRETAIN
 70
     1
  9
$PLINEGEN
 70
     0
  9
$PSLTSCALE
 70
     1
  0
ENDSEC
  0
SECTION
  2
TABLES
  0
TABLE
  2
VPORT
 70
     1
  0
VPORT
  2
*ACTIVE
 70
     0
 10
0.0
 20
0.0
 11
1.0
 21
1.0
 12
-30.25
 22
45.0
 13
0.0
 23
0.0
 14
10.0
 24
10.0
 15
10.0
 25
10.0
 16
0.0
 26
0.0
 36
1.0
 17
0.0
 27
0.0
 37
0.0
 40
295.8
 41
1.0706896552
 42
50.0
 43
0.0
 44
0.0
 50
0.0
 51
0.0
 71
     0
 72
   100
 73
     1
 74
     3
 75
     0
 76
     0
 77
     0
 78
     0
  0
ENDTAB
  0
TABLE
  2
LTYPE
 70
     6
  0
LTYPE
  2
CONTINUOUS
 70
     0
  3
Solid line
 72
    65
 73
     0
 40
0.0
  0
LTYPE
  2
HIDDEN
 70
     0
  3
Hidden __ __ __ __ __ __ __ __ __ __ __ __ __ __
 72
    65
 73
     2
 40
1.905
 49
1.27
 49
-0.635
  0
LTYPE
  2
PHANTOM
 70
     0
  3
Phantom ______  __  __  ______  __  __  ______
 72
    65
 73
     6
 40
12.7
 49
6.35
 49
-1.27
 49
1.27
 49
-1.27
 49
1.27
 49
-1.27
  0
LTYPE
  2
CENTER
 70
     0
  3
Center ____ _ ____ _ ____ _ ____ _ ____ _ ____
 72
    65
 73
     4
 40
10.16
 49
6.35
 49
-1.27
 49
1.27
 49
-1.27
  0
LTYPE
  2
CENTERX2
 70
     0
  3
Center (2x) ________  __  ________  __  _____
 72
    65
 73
     4
 40
20.32
 49
12.7
 49
-2.54
 49
2.54
 49
-2.54
  0
LTYPE
  2
DOT2
 70
     0
  3
Dot (.5x) ........................................
 72
    65
 73
     2
 40
0.635
 49
0.0
 49
-0.635
  0
ENDTAB
  0
TABLE
  2
LAYER
 70
     1
  0
LAYER
  2
0
 70
     0
 62
     7
  6
CONTINUOUS
  0
ENDTAB
  0
TABLE
  2
STYLE
 70
     1
  0
STYLE
  2
STANDARD
 70
     0
 40
0.0
 41
1.0
 50
0.0
 71
     0
 42
3.5
  3
txt
  4

  0
ENDTAB
  0
TABLE
  2
VIEW
 70
     0
  0
ENDTAB
  0
TABLE
  2
UCS
 70
     0
  0
ENDTAB
  0
TABLE
  2
APPID
 70
     1
  0
APPID
  2
ACAD
 70
     0
  0
ENDTAB
  0
TABLE
  2
DIMSTYLE
 70
     1
  0
DIMSTYLE
  2
ISO-25
 70
     0
  3

  4

  5

  6

  7

 40
1.0
 41
2.5
 42
0.625
 43
3.75
 44
1.25
 45
0.0
 46
0.0
 47
0.0
 48
0.0
140
2.5
141
2.5
142
0.0
143
0.0393700787
144
1.0
145
0.0
146
1.0
147
0.625
 71
     0
 72
     0
 73
     0
 74
     0
 75
     0
 76
     0
 77
     1
 78
     8
170
     0
171
     3
172
     1
173
     0
174
     0
175
     0
176
     0
177
     0
178
     0
  0
ENDTAB
  0
ENDSEC
  0
SECTION
  2
BLOCKS
  0
BLOCK
  8
0
  2
$MODEL_SPACE
 70
     0
 10
0.0
 20
0.0
 30
0.0
  3
$MODEL_SPACE
  1

  0
ENDBLK
  5
21
  8
0
  0
BLOCK
 67
     1
  8
0
  2
$PAPER_SPACE
 70
     0
 10
0.0
 20
0.0
 30
0.0
  3
$PAPER_SPACE
  1

  0
ENDBLK
  5
1D
 67
     1
  8
0
  0
ENDSEC
  0
SECTION
  2
ENTITIES
  0
CIRCLE
  5
A5
  8
0
  6
CONTINUOUS
 62
     7
 10
95.0
 20
-29.0
 30
0.0
 40
1.500000000000021
  0
CIRCLE
  5
A6
  8
0
  6
CONTINUOUS
 62
     7
 10
43.25
 20
-72.25
 30
0.0
 40
1.5
  0
CIRCLE
  5
A7
  8
0
  6
CONTINUOUS
 62
     7
 10
43.25
 20
-44.25
 30
0.0
 40
1.499999999999993
  0
CIRCLE
  5
A8
  8
0
  6
CONTINUOUS
 62
     7
 10
19.875
 20
-29.0
 30
0.0
 40
1.500000000000007
  0
CIRCLE
  5
A9
  8
0
  6
CONTINUOUS
 62
     7
 10
13.25
 20
-77.5
 30
0.0
 40
1.5
  0
CIRCLE
  5
AA
  8
0
  6
CONTINUOUS
 62
     7
 10
95.5
 20
-77.5
 30
0.0
 40
1.500000000000014
  0
CIRCLE
  5
AB
  8
0
  6
CONTINUOUS
 62
     7
 10
-46.9999990337
 20
-48.0000005946
 30
0.0
 40
1.500000000000014
  0
CIRCLE
  5
AC
  8
0
  6
CONTINUOUS
 62
     7
 10
-71.0
 20
26.9999993744
 30
0.0
 40
1.500000000000011
  0
CIRCLE
  5
AD
  8
0
  6
CONTINUOUS
 62
     7
 10
-107.5
 20
26.9999993744
 30
0.0
 40
1.500000000000018
  0
CIRCLE
  5
AE
  8
0
  6
CONTINUOUS
 62
     7
 10
-64.5
 20
-48.0000006256
 30
0.0
 40
1.5
  0
CIRCLE
  5
AF
  8
0
  6
CONTINUOUS
 62
     7
 10
-107.5
 20
-48.0000006256
 30
0.0
 40
1.5
  0
CIRCLE
  5
B0
  8
0
  6
CONTINUOUS
 62
     7
 10
-10.4999999628
 20
26.9999998575
 30
0.0
 40
1.5
  0
CIRCLE
  5
B1
  8
0
  6
CONTINUOUS
 62
     7
 10
-46.9999999628
 20
26.9999994054
 30
0.0
 40
1.500000000000004
  0
CIRCLE
  5
B2
  8
0
  6
CONTINUOUS
 62
     7
 10
-3.9999990337
 20
-48.0000000619
 30
0.0
 40
1.500000000000007
  0
CIRCLE
  5
B3
  8
0
  6
CONTINUOUS
 62
     7
 10
43.0
 20
34.75
 30
0.0
 40
1.500000000000007
  0
CIRCLE
  5
B4
  8
0
  6
CONTINUOUS
 62
     7
 10
43.0
 20
65.25
 30
0.0
 40
1.499999999999986
  0
CIRCLE
  5
B5
  8
0
  6
CONTINUOUS
 62
     7
 10
97.0
 20
65.25
 30
0.0
 40
1.499999999999993
  0
CIRCLE
  5
B6
  8
0
  6
CONTINUOUS
 62
     7
 10
97.0
 20
34.75
 30
0.0
 40
1.500000000000014
  0
CIRCLE
  5
C7
  8
0
  6
CONTINUOUS
 62
     7
 10
120.0
 20
105.0
 30
0.0
 40
1.500000000000014
  0
CIRCLE
  5
C8
  8
0
  6
CONTINUOUS
 62
     7
 10
-108.75
 20
95.0
 30
0.0
 40
1.5
  0
CIRCLE
  5
C9
  8
0
  6
CONTINUOUS
 62
     7
 10
-108.75
 20
-95.0
 30
0.0
 40
1.5
  0
CIRCLE
  5
CA
  8
0
  6
CONTINUOUS
 62
     7
 10
120.0
 20
185.0
 30
0.0
 40
1.5
  0
CIRCLE
  5
CB
  8
0
  6
CONTINUOUS
 62
     7
 10
120.0
 20
95.0
 30
0.0
 40
1.5
  0
CIRCLE
  5
CC
  8
0
  6
CONTINUOUS
 62
     7
 10
120.0
 20
-95.0
 30
0.0
 40
1.500000000000028
  0
CIRCLE
  5
CD
  8
0
  6
CONTINUOUS
 62
     7
 10
-108.75
 20
118.0
 30
0.0
 40
1.5
  0
CIRCLE
  5
CE
  8
0
  6
CONTINUOUS
 62
     7
 10
-108.75
 20
128.0
 30
0.0
 40
1.5
  0
CIRCLE
  5
CF
  8
0
  6
CONTINUOUS
 62
     7
 10
5.625
 20
185.0
 30
0.0
 40
1.499999999999972
  0
CIRCLE
  5
D0
  8
0
  6
CONTINUOUS
 62
     7
 10
-96.75
 20
100.0
 30
0.0
 40
4.999999999999972
  0
CIRCLE
  5
D1
  8
0
  6
CONTINUOUS
 62
     7
 10
-180.5
 20
177.5
 30
0.0
 40
1.5
  0
CIRCLE
  5
D2
  8
0
  6
CONTINUOUS
 62
     7
 10
-108.75
 20
185.0
 30
0.0
 40
1.500000000000028
  0
CIRCLE
  5
D3
  8
0
  6
CONTINUOUS
 62
     7
 10
-135.5
 20
-90.0
 30
0.0
 40
1.500000000000043
  0
CIRCLE
  5
D4
  8
0
  6
CONTINUOUS
 62
     7
 10
-135.5
 20
10.0
 30
0.0
 40
1.499999999999952
  0
CIRCLE
  5
D5
  8
0
  6
CONTINUOUS
 62
     7
 10
-175.5
 20
-40.0
 30
0.0
 40
1.499999999999986
  0
CIRCLE
  5
D6
  8
0
  6
CONTINUOUS
 62
     7
 10
-135.5
 20
-40.0
 30
0.0
 40
1.499999999999964
  0
CIRCLE
  5
D7
  8
0
  6
CONTINUOUS
 62
     7
 10
-175.5
 20
-90.0
 30
0.0
 40
1.499999999999972
  0
CIRCLE
  5
D8
  8
0
  6
CONTINUOUS
 62
     7
 10
-175.5
 20
110.0
 30
0.0
 40
1.499999999999986
  0
CIRCLE
  5
D9
  8
0
  6
CONTINUOUS
 62
     7
 10
-135.5
 20
110.0
 30
0.0
 40
1.500000000000043
  0
CIRCLE
  5
DA
  8
0
  6
CONTINUOUS
 62
     7
 10
-175.5
 20
60.0
 30
0.0
 40
1.499999999999993
  0
CIRCLE
  5
DB
  8
0
  6
CONTINUOUS
 62
     7
 10
-135.5
 20
60.0
 30
0.0
 40
1.500000000000021
  0
CIRCLE
  5
DC
  8
0
  6
CONTINUOUS
 62
     7
 10
-175.5
 20
10.0
 30
0.0
 40
1.500000000000004
  0
CIRCLE
  5
E1
  8
0
  6
CONTINUOUS
 62
     7
 10
-78.545616023
 20
68.6350687823
 30
0.0
 40
1.499999999999986
  0
CIRCLE
  5
E2
  8
0
  6
CONTINUOUS
 62
     7
 10
-43.7522501417
 20
68.6350687823
 30
0.0
 40
1.5
  0
CIRCLE
  5
E3
  8
0
  6
CONTINUOUS
 62
     7
 10
-82.3531588335
 20
37.820604023
 30
0.0
 40
1.499999999999986
  0
CIRCLE
  5
E4
  8
0
  6
CONTINUOUS
 62
     7
 10
-92.9146369222
 20
37.820604023
 30
0.0
 40
1.499999999999986
  0
CIRCLE
  5
E5
  8
0
  6
CONTINUOUS
 62
     7
 10
-75.1686483839
 20
53.2278364027
 30
0.0
 40
1.499999999999993
  0
CIRCLE
  5
E6
  8
0
  6
CONTINUOUS
 62
     7
 10
-85.7301264726
 20
53.2278364027
 30
0.0
 40
1.499999999999986
  0
CIRCLE
  5
E7
  8
0
  6
CONTINUOUS
 62
     7
 10
-67.9841379343
 20
68.6350687823
 30
0.0
 40
1.500000000000014
  0
CIRCLE
  5
E8
  8
0
  6
CONTINUOUS
 62
     7
 10
-30.9078665892
 20
68.6350687823
 30
0.0
 40
1.5
  0
CIRCLE
  5
E9
  8
0
  6
CONTINUOUS
 62
     7
 10
-39.61114542
 20
53.1802555617
 30
0.0
 40
1.499999999999986
  0
CIRCLE
  5
EA
  8
0
  6
CONTINUOUS
 62
     7
 10
-26.7667618676
 20
53.1802555617
 30
0.0
 40
1.499999999999993
  0
CIRCLE
  5
EB
  8
0
  6
CONTINUOUS
 62
     7
 10
-35.4700406984
 20
37.725442341
 30
0.0
 40
1.499999999999993
  0
CIRCLE
  5
EC
  8
0
  6
CONTINUOUS
 62
     7
 10
-22.6256571459
 20
37.725442341
 30
0.0
 40
1.5
  0
CIRCLE
  5
ED
  8
0
  6
CONTINUOUS
 62
     7
 10
34.5028499255
 20
43.2875254198
 30
0.0
 40
1.499999999999993
  0
CIRCLE
  5
EE
  8
0
  6
CONTINUOUS
 62
     7
 10
-2.3531588335
 20
-68.4930030758
 30
0.0
 40
1.5
  0
CIRCLE
  5
EF
  8
0
  6
CONTINUOUS
 62
     7
 10
-2.3531588335
 20
-61.4930030758
 30
0.0
 40
1.5
  0
CIRCLE
  5
F0
  8
0
  6
CONTINUOUS
 62
     7
 10
-22.3531588335
 20
-68.4930030758
 30
0.0
 40
1.500000000000014
  0
CIRCLE
  5
F1
  8
0
  6
CONTINUOUS
 62
     7
 10
-22.3531588335
 20
-61.4930030758
 30
0.0
 40
1.5
  0
CIRCLE
  5
F2
  8
0
  6
CONTINUOUS
 62
     7
 10
-42.3531588335
 20
-68.4930030758
 30
0.0
 40
1.5
  0
CIRCLE
  5
F3
  8
0
  6
CONTINUOUS
 62
     7
 10
-42.3531588335
 20
-61.4930030758
 30
0.0
 40
1.499999999999986
  0
CIRCLE
  5
F4
  8
0
  6
CONTINUOUS
 62
     7
 10
-62.3531588335
 20
-68.4930030758
 30
0.0
 40
1.499999999999972
  0
CIRCLE
  5
F5
  8
0
  6
CONTINUOUS
 62
     7
 10
-82.3531588335
 20
-61.4930030758
 30
0.0
 40
1.500000000000007
  0
CIRCLE
  5
F6
  8
0
  6
CONTINUOUS
 62
     7
 10
-82.3531588335
 20
-68.4930030758
 30
0.0
 40
1.499999999999972
  0
CIRCLE
  5
F7
  8
0
  6
CONTINUOUS
 62
     7
 10
-62.3531588335
 20
-61.4930030758
 30
0.0
 40
1.499999999999993
  0
CIRCLE
  5
F8
  8
0
  6
CONTINUOUS
 62
     7
 10
105.4971500745
 20
43.2875254198
 30
0.0
 40
1.499999999999979
  0
CIRCLE
  5
F9
  8
0
  6
CONTINUOUS
 62
     7
 10
105.4971500745
 20
50.8820160514
 30
0.0
 40
1.499999999999986
  0
CIRCLE
  5
FA
  8
0
  6
CONTINUOUS
 62
     7
 10
34.5028499255
 20
50.8820160514
 30
0.0
 40
1.499999999999993
  0
LINE
  5
FD
  8
0
  6
CONTINUOUS
 62
     7
 10
-185.5
 20
190.0
 30
0.0
 11
125.0
 21
190.0
 31
0.0
  0
LINE
  5
FE
  8
0
  6
CONTINUOUS
 62
     7
 10
125.0
 20
190.0
 30
0.0
 11
125.0
 21
-100.0
 31
0.0
  0
LINE
  5
FF
  8
0
  6
CONTINUOUS
 62
     7
 10
80.5
 20
-86.0
 30
0.0
 11
80.5
 21
-90.0
 31
0.0
  0
LINE
  5
100
  8
0
  6
CONTINUOUS
 62
     7
 10
50.5
 20
-86.0
 30
0.0
 11
80.5
 21
-86.0
 31
0.0
  0
LINE
  5
101
  8
0
  6
CONTINUOUS
 62
     7
 10
50.5
 20
-90.0
 30
0.0
 11
50.5
 21
-86.0
 31
0.0
  0
LINE
  5
102
  8
0
  6
CONTINUOUS
 62
     7
 10
80.5
 20
-90.0
 30
0.0
 11
50.5
 21
-90.0
 31
0.0
  0
LINE
  5
103
  8
0
  6
CONTINUOUS
 62
     7
 10
15.0
 20
-86.0
 30
0.0
 11
15.0
 21
-90.0
 31
0.0
  0
LINE
  5
104
  8
0
  6
CONTINUOUS
 62
     7
 10
-15.0
 20
-86.0
 30
0.0
 11
15.0
 21
-86.0
 31
0.0
  0
LINE
  5
105
  8
0
  6
CONTINUOUS
 62
     7
 10
-15.0
 20
-90.0
 30
0.0
 11
-15.0
 21
-86.0
 31
0.0
  0
LINE
  5
106
  8
0
  6
CONTINUOUS
 62
     7
 10
15.0
 20
-90.0
 30
0.0
 11
-15.0
 21
-90.0
 31
0.0
  0
LINE
  5
107
  8
0
  6
CONTINUOUS
 62
     7
 10
-50.5
 20
-86.0
 30
0.0
 11
-50.5
 21
-90.0
 31
0.0
  0
LINE
  5
108
  8
0
  6
CONTINUOUS
 62
     7
 10
-80.5
 20
-86.0
 30
0.0
 11
-50.5
 21
-86.0
 31
0.0
  0
LINE
  5
109
  8
0
  6
CONTINUOUS
 62
     7
 10
-80.5
 20
-90.0
 30
0.0
 11
-80.5
 21
-86.0
 31
0.0
  0
LINE
  5
10A
  8
0
  6
CONTINUOUS
 62
     7
 10
-50.5
 20
-90.0
 30
0.0
 11
-80.5
 21
-90.0
 31
0.0
  0
LINE
  5
10B
  8
0
  6
CONTINUOUS
 62
     7
 10
-50.5
 20
86.0
 30
0.0
 11
-80.5
 21
86.0
 31
0.0
  0
LINE
  5
10C
  8
0
  6
CONTINUOUS
 62
     7
 10
-50.5
 20
90.0
 30
0.0
 11
-50.5
 21
86.0
 31
0.0
  0
LINE
  5
10D
  8
0
  6
CONTINUOUS
 62
     7
 10
-80.5
 20
90.0
 30
0.0
 11
-50.5
 21
90.0
 31
0.0
  0
LINE
  5
10E
  8
0
  6
CONTINUOUS
 62
     7
 10
-80.5
 20
86.0
 30
0.0
 11
-80.5
 21
90.0
 31
0.0
  0
LINE
  5
10F
  8
0
  6
CONTINUOUS
 62
     7
 10
15.0
 20
86.0
 30
0.0
 11
-15.0
 21
86.0
 31
0.0
  0
LINE
  5
110
  8
0
  6
CONTINUOUS
 62
     7
 10
15.0
 20
90.0
 30
0.0
 11
15.0
 21
86.0
 31
0.0
  0
LINE
  5
111
  8
0
  6
CONTINUOUS
 62
     7
 10
-15.0
 20
90.0
 30
0.0
 11
15.0
 21
90.0
 31
0.0
  0
LINE
  5
112
  8
0
  6
CONTINUOUS
 62
     7
 10
-15.0
 20
86.0
 30
0.0
 11
-15.0
 21
90.0
 31
0.0
  0
LINE
  5
113
  8
0
  6
CONTINUOUS
 62
     7
 10
80.5
 20
86.0
 30
0.0
 11
50.5
 21
86.0
 31
0.0
  0
LINE
  5
114
  8
0
  6
CONTINUOUS
 62
     7
 10
80.5
 20
90.0
 30
0.0
 11
80.5
 21
86.0
 31
0.0
  0
LINE
  5
115
  8
0
  6
CONTINUOUS
 62
     7
 10
50.5
 20
90.0
 30
0.0
 11
80.5
 21
90.0
 31
0.0
  0
LINE
  5
116
  8
0
  6
CONTINUOUS
 62
     7
 10
50.5
 20
86.0
 30
0.0
 11
50.5
 21
90.0
 31
0.0
  0
LINE
  5
117
  8
0
  6
CONTINUOUS
 62
     7
 10
-112.0
 20
-60.0
 30
0.0
 11
-116.0
 21
-60.0
 31
0.0
  0
LINE
  5
118
  8
0
  6
CONTINUOUS
 62
     7
 10
-112.0
 20
-40.0
 30
0.0
 11
-112.0
 21
-60.0
 31
0.0
  0
LINE
  5
119
  8
0
  6
CONTINUOUS
 62
     7
 10
-116.0
 20
-40.0
 30
0.0
 11
-112.0
 21
-40.0
 31
0.0
  0
LINE
  5
11A
  8
0
  6
CONTINUOUS
 62
     7
 10
-116.0
 20
-60.0
 30
0.0
 11
-116.0
 21
-40.0
 31
0.0
  0
LINE
  5
11B
  8
0
  6
CONTINUOUS
 62
     7
 10
-112.0
 20
-10.0
 30
0.0
 11
-116.0
 21
-10.0
 31
0.0
  0
LINE
  5
11C
  8
0
  6
CONTINUOUS
 62
     7
 10
-112.0
 20
10.0
 30
0.0
 11
-112.0
 21
-10.0
 31
0.0
  0
LINE
  5
11D
  8
0
  6
CONTINUOUS
 62
     7
 10
-116.0
 20
10.0
 30
0.0
 11
-112.0
 21
10.0
 31
0.0
  0
LINE
  5
11E
  8
0
  6
CONTINUOUS
 62
     7
 10
-116.0
 20
-10.0
 30
0.0
 11
-116.0
 21
10.0
 31
0.0
  0
LINE
  5
11F
  8
0
  6
CONTINUOUS
 62
     7
 10
-112.0
 20
40.0
 30
0.0
 11
-116.0
 21
40.0
 31
0.0
  0
LINE
  5
120
  8
0
  6
CONTINUOUS
 62
     7
 10
-112.0
 20
60.0
 30
0.0
 11
-112.0
 21
40.0
 31
0.0
  0
LINE
  5
121
  8
0
  6
CONTINUOUS
 62
     7
 10
-116.0
 20
60.0
 30
0.0
 11
-112.0
 21
60.0
 31
0.0
  0
LINE
  5
122
  8
0
  6
CONTINUOUS
 62
     7
 10
-116.0
 20
40.0
 30
0.0
 11
-116.0
 21
60.0
 31
0.0
  0
LINE
  5
123
  8
0
  6
CONTINUOUS
 62
     7
 10
112.0
 20
40.0
 30
0.0
 11
112.0
 21
60.0
 31
0.0
  0
LINE
  5
124
  8
0
  6
CONTINUOUS
 62
     7
 10
116.0
 20
40.0
 30
0.0
 11
112.0
 21
40.0
 31
0.0
  0
LINE
  5
125
  8
0
  6
CONTINUOUS
 62
     7
 10
116.0
 20
60.0
 30
0.0
 11
116.0
 21
40.0
 31
0.0
  0
LINE
  5
126
  8
0
  6
CONTINUOUS
 62
     7
 10
112.0
 20
60.0
 30
0.0
 11
116.0
 21
60.0
 31
0.0
  0
LINE
  5
127
  8
0
  6
CONTINUOUS
 62
     7
 10
112.0
 20
-10.0
 30
0.0
 11
112.0
 21
10.0
 31
0.0
  0
LINE
  5
128
  8
0
  6
CONTINUOUS
 62
     7
 10
116.0
 20
-10.0
 30
0.0
 11
112.0
 21
-10.0
 31
0.0
  0
LINE
  5
129
  8
0
  6
CONTINUOUS
 62
     7
 10
116.0
 20
10.0
 30
0.0
 11
116.0
 21
-10.0
 31
0.0
  0
LINE
  5
12A
  8
0
  6
CONTINUOUS
 62
     7
 10
112.0
 20
10.0
 30
0.0
 11
116.0
 21
10.0
 31
0.0
  0
LINE
  5
12B
  8
0
  6
CONTINUOUS
 62
     7
 10
112.0
 20
-60.0
 30
0.0
 11
112.0
 21
-40.0
 31
0.0
  0
LINE
  5
12C
  8
0
  6
CONTINUOUS
 62
     7
 10
116.0
 20
-60.0
 30
0.0
 11
112.0
 21
-60.0
 31
0.0
  0
LINE
  5
12D
  8
0
  6
CONTINUOUS
 62
     7
 10
116.0
 20
-40.0
 30
0.0
 11
116.0
 21
-60.0
 31
0.0
  0
LINE
  5
12E
  8
0
  6
CONTINUOUS
 62
     7
 10
112.0
 20
-40.0
 30
0.0
 11
116.0
 21
-40.0
 31
0.0
  0
LINE
  5
12F
  8
0
  6
CONTINUOUS
 62
     7
 10
-94.375
 20
178.0
 30
0.0
 11
-124.375
 21
178.0
 31
0.0
  0
LINE
  5
130
  8
0
  6
CONTINUOUS
 62
     7
 10
-94.375
 20
182.0
 30
0.0
 11
-94.375
 21
178.0
 31
0.0
  0
LINE
  5
131
  8
0
  6
CONTINUOUS
 62
     7
 10
-124.375
 20
182.0
 30
0.0
 11
-94.375
 21
182.0
 31
0.0
  0
LINE
  5
132
  8
0
  6
CONTINUOUS
 62
     7
 10
-124.375
 20
178.0
 30
0.0
 11
-124.375
 21
182.0
 31
0.0
  0
LINE
  5
133
  8
0
  6
CONTINUOUS
 62
     7
 10
112.0
 20
149.0
 30
0.0
 11
116.0
 21
149.0
 31
0.0
  0
LINE
  5
134
  8
0
  6
CONTINUOUS
 62
     7
 10
112.0
 20
119.0
 30
0.0
 11
112.0
 21
149.0
 31
0.0
  0
LINE
  5
135
  8
0
  6
CONTINUOUS
 62
     7
 10
116.0
 20
119.0
 30
0.0
 11
112.0
 21
119.0
 31
0.0
  0
LINE
  5
136
  8
0
  6
CONTINUOUS
 62
     7
 10
116.0
 20
149.0
 30
0.0
 11
116.0
 21
119.0
 31
0.0
  0
LINE
  5
137
  8
0
  6
CONTINUOUS
 62
     7
 10
65.875
 20
178.0
 30
0.0
 11
35.875
 21
178.0
 31
0.0
  0
LINE
  5
138
  8
0
  6
CONTINUOUS
 62
     7
 10
65.875
 20
182.0
 30
0.0
 11
65.875
 21
178.0
 31
0.0
  0
LINE
  5
139
  8
0
  6
CONTINUOUS
 62
     7
 10
35.875
 20
182.0
 30
0.0
 11
65.875
 21
182.0
 31
0.0
  0
LINE
  5
13A
  8
0
  6
CONTINUOUS
 62
     7
 10
35.875
 20
178.0
 30
0.0
 11
35.875
 21
182.0
 31
0.0
  0
LINE
  5
13B
  8
0
  6
CONTINUOUS
 62
     7
 10
-14.25
 20
178.0
 30
0.0
 11
-44.25
 21
178.0
 31
0.0
  0
LINE
  5
13C
  8
0
  6
CONTINUOUS
 62
     7
 10
-14.25
 20
182.0
 30
0.0
 11
-14.25
 21
178.0
 31
0.0
  0
LINE
  5
13D
  8
0
  6
CONTINUOUS
 62
     7
 10
-44.25
 20
182.0
 30
0.0
 11
-14.25
 21
182.0
 31
0.0
  0
LINE
  5
13E
  8
0
  6
CONTINUOUS
 62
     7
 10
-44.25
 20
178.0
 30
0.0
 11
-44.25
 21
182.0
 31
0.0
  0
LINE
  5
13F
  8
0
  6
CONTINUOUS
 62
     7
 10
-160.5
 20
151.0
 30
0.0
 11
-168.5
 21
151.0
 31
0.0
  0
LINE
  5
140
  8
0
  6
CONTINUOUS
 62
     7
 10
-168.5
 20
159.0
 30
0.0
 11
-160.5
 21
159.0
 31
0.0
  0
LINE
  5
141
  8
0
  6
CONTINUOUS
 62
     7
 10
125.0
 20
-100.0
 30
0.0
 11
-185.5
 21
-100.0
 31
0.0
  0
LINE
  5
142
  8
0
  6
CONTINUOUS
 62
     7
 10
-185.5
 20
-100.0
 30
0.0
 11
-185.5
 21
190.0
 31
0.0
  0
ARC
  5
143
  8
0
  6
CONTINUOUS
 62
     7
 10
-160.5
 20
155.0
 30
0.0
 40
4.000000000000028
 50
270.0
 51
90.0
  0
ARC
  5
144
  8
0
  6
CONTINUOUS
 62
     7
 10
-168.5
 20
155.0
 30
0.0
 40
4.000000000000057
 50
90.0
 51
270.0
  0
ENDSEC
  0
EOF
