  0
SECTION
  2
HEADER
  9
$ACADVER
  1
AC1009
  9
$DWGCODEPAGE
  3
ansi_1252
  9
$INSBASE
 10
0.0
 20
0.0
 30
0.0
  9
$EXTMIN
 10
-116.0
 20
-39.0
 30
0.0
  9
$EXTMAX
 10
116.0
 20
39.0
 30
0.0
  9
$LIMMIN
 10
0.0
 20
0.0
  9
$LIMMAX
 10
420.0
 20
297.0
  9
$ORTHOMODE
 70
     0
  9
$REGENMODE
 70
     1
  9
$FILLMODE
 70
     1
  9
$QTEXTMODE
 70
     0
  9
$MIRRTEXT
 70
     1
  9
$DRAGMODE
 70
     2
  9
$LTSCALE
 40
1.0
  9
$OSMODE
 70
    37
  9
$ATTMODE
 70
     1
  9
$TEXTSIZE
 40
3.5
  9
$TRACEWID
 40
1.0
  9
$TEXTSTYLE
  7
STANDARD
  9
$CLAYER
  8
0
  9
$CELTYPE
  6
BYLAYER
  9
$CECOLOR
 62
   256
  9
$DIMSCALE
 40
1.0
  9
$DIMASZ
 40
3.556
  9
$DIMEXO
 40
1.0
  9
$DIMDLI
 40
3.75
  9
$DIMRND
 40
0.0
  9
$DIMDLE
 40
0.0
  9
$DIMEXE
 40
1.0
  9
$DIMTP
 40
0.0
  9
$DIMTM
 40
0.0
  9
$DIMTXT
 40
3.5
  9
$DIMCEN
 40
2.5
  9
$DIMTSZ
 40
0.0
  9
$DIMTOL
 70
     0
  9
$DIMLIM
 70
     0
  9
$DIMTIH
 70
     1
  9
$DIMTOH
 70
     1
  9
$DIMSE1
 70
     0
  9
$DIMSE2
 70
     0
  9
$DIMTAD
 70
     1
  9
$DIMZIN
 70
     0
  9
$DIMBLK
  1

  9
$DIMASO
 70
     1
  9
$DIMSHO
 70
     1
  9
$DIMPOST
  1

  9
$DIMAPOST
  1

  9
$DIMALT
 70
     0
  9
$DIMALTD
 70
     3
  9
$DIMALTF
 40
0.0393700787
  9
$DIMLFAC
 40
1.0
  9
$DIMTOFL
 70
     1
  9
$DIMTVP
 40
0.0
  9
$DIMTIX
 70
     0
  9
$DIMSOXD
 70
     0
  9
$DIMSAH
 70
     0
  9
$DIMBLK1
  1

  9
$DIMBLK2
  1

  9
$DIMSTYLE
  2
ISO-25
  9
$DIMCLRD
 70
     0
  9
$DIMCLRE
 70
     0
  9
$DIMCLRT
 70
     0
  9
$DIMTFAC
 40
1.0
  9
$DIMGAP
 40
1.524
  9
$LUNITS
 70
     2
  9
$LUPREC
 70
     2
  9
$SKETCHINC
 40
1.0
  9
$FILLETRAD
 40
10.0
  9
$AUNITS
 70
     0
  9
$AUPREC
 70
     2
  9
$MENU
  1
.
  9
$ELEVATION
 40
0.0
  9
$PELEVATION
 40
0.0
  9
$THICKNESS
 40
0.0
  9
$LIMCHECK
 70
     0
  9
$CHAMFERA
 40
0.0
  9
$CHAMFERB
 40
0.0
  9
$SKPOLY
 70
     0
  9
$TDCREATE
 40
2458883.686757674
  9
$TDUPDATE
 40
2458883.686801331
  9
$TDINDWG
 40
0.0000000116
  9
$TDUSRTIMER
 40
0.0000000116
  9
$USRTIMER
 70
     1
  9
$ANGBASE
 50
0.0
  9
$ANGDIR
 70
     0
  9
$PDMODE
 70
     0
  9
$PDSIZE
 40
-1.0
  9
$PLINEWID
 40
0.0
  9
$COORDS
 70
     1
  9
$SPLFRAME
 70
     0
  9
$SPLINETYPE
 70
     6
  9
$SPLINESEGS
 70
     8
  9
$ATTDIA
 70
     0
  9
$ATTREQ
 70
     1
  9
$HANDLING
 70
     1
  9
$HANDSEED
  5
121
  9
$SURFTAB1
 70
     6
  9
$SURFTAB2
 70
     6
  9
$SURFTYPE
 70
     6
  9
$SURFU
 70
     6
  9
$SURFV
 70
     6
  9
$UCSNAME
  2

  9
$UCSORG
 10
0.0
 20
0.0
 30
0.0
  9
$UCSXDIR
 10
1.0
 20
0.0
 30
0.0
  9
$UCSYDIR
 10
0.0
 20
1.0
 30
0.0
  9
$PUCSNAME
  2

  9
$PUCSORG
 10
0.0
 20
0.0
 30
0.0
  9
$PUCSXDIR
 10
1.0
 20
0.0
 30
0.0
  9
$PUCSYDIR
 10
0.0
 20
1.0
 30
0.0
  9
$USERI1
 70
     0
  9
$USERI2
 70
     0
  9
$USERI3
 70
     0
  9
$USERI4
 70
     0
  9
$USERI5
 70
     0
  9
$USERR1
 40
0.0
  9
$USERR2
 40
0.0
  9
$USERR3
 40
0.0
  9
$USERR4
 40
0.0
  9
$USERR5
 40
0.0
  9
$WORLDVIEW
 70
     1
  9
$SHADEDGE
 70
     3
  9
$SHADEDIF
 70
    70
  9
$TILEMODE
 70
     1
  9
$MAXACTVP
 70
    64
  9
$PLIMCHECK
 70
     0
  9
$PEXTMIN
 10
1.0000000000E+20
 20
1.0000000000E+20
 30
1.0000000000E+20
  9
$PEXTMAX
 10
-1.0000000000E+20
 20
-1.0000000000E+20
 30
-1.0000000000E+20
  9
$PLIMMIN
 10
0.0
 20
0.0
  9
$PLIMMAX
 10
420.0
 20
297.0
  9
$UNITMODE
 70
     0
  9
$VISRETAIN
 70
     1
  9
$PLINEGEN
 70
     0
  9
$PSLTSCALE
 70
     1
  0
ENDSEC
  0
SECTION
  2
TABLES
  0
TABLE
  2
VPORT
 70
     1
  0
VPORT
  2
*ACTIVE
 70
     0
 10
0.0
 20
0.0
 11
1.0
 21
1.0
 12
0.0
 22
0.0
 13
0.0
 23
0.0
 14
10.0
 24
10.0
 15
10.0
 25
10.0
 16
0.0
 26
0.0
 36
1.0
 17
0.0
 27
0.0
 37
0.0
 40
79.56
 41
2.9743589744
 42
50.0
 43
0.0
 44
0.0
 50
0.0
 51
0.0
 71
     0
 72
   100
 73
     1
 74
     3
 75
     0
 76
     0
 77
     0
 78
     0
  0
ENDTAB
  0
TABLE
  2
LTYPE
 70
     6
  0
LTYPE
  2
CONTINUOUS
 70
     0
  3
Solid line
 72
    65
 73
     0
 40
0.0
  0
LTYPE
  2
HIDDEN
 70
     0
  3
Hidden __ __ __ __ __ __ __ __ __ __ __ __ __ __
 72
    65
 73
     2
 40
1.905
 49
1.27
 49
-0.635
  0
LTYPE
  2
PHANTOM
 70
     0
  3
Phantom ______  __  __  ______  __  __  ______
 72
    65
 73
     6
 40
12.7
 49
6.35
 49
-1.27
 49
1.27
 49
-1.27
 49
1.27
 49
-1.27
  0
LTYPE
  2
CENTER
 70
     0
  3
Center ____ _ ____ _ ____ _ ____ _ ____ _ ____
 72
    65
 73
     4
 40
10.16
 49
6.35
 49
-1.27
 49
1.27
 49
-1.27
  0
LTYPE
  2
CENTERX2
 70
     0
  3
Center (2x) ________  __  ________  __  _____
 72
    65
 73
     4
 40
20.32
 49
12.7
 49
-2.54
 49
2.54
 49
-2.54
  0
LTYPE
  2
DOT2
 70
     0
  3
Dot (.5x) ........................................
 72
    65
 73
     2
 40
0.635
 49
0.0
 49
-0.635
  0
ENDTAB
  0
TABLE
  2
LAYER
 70
     1
  0
LAYER
  2
0
 70
     0
 62
     7
  6
CONTINUOUS
  0
ENDTAB
  0
TABLE
  2
STYLE
 70
     1
  0
STYLE
  2
STANDARD
 70
     0
 40
0.0
 41
1.0
 50
0.0
 71
     0
 42
3.5
  3
txt
  4

  0
ENDTAB
  0
TABLE
  2
VIEW
 70
     0
  0
ENDTAB
  0
TABLE
  2
UCS
 70
     0
  0
ENDTAB
  0
TABLE
  2
APPID
 70
     1
  0
APPID
  2
ACAD
 70
     0
  0
ENDTAB
  0
TABLE
  2
DIMSTYLE
 70
     1
  0
DIMSTYLE
  2
ISO-25
 70
     0
  3

  4

  5

  6

  7

 40
1.0
 41
2.5
 42
0.625
 43
3.75
 44
1.25
 45
0.0
 46
0.0
 47
0.0
 48
0.0
140
2.5
141
2.5
142
0.0
143
0.0393700787
144
1.0
145
0.0
146
1.0
147
0.625
 71
     0
 72
     0
 73
     0
 74
     0
 75
     0
 76
     0
 77
     1
 78
     8
170
     0
171
     3
172
     1
173
     0
174
     0
175
     0
176
     0
177
     0
178
     0
  0
ENDTAB
  0
ENDSEC
  0
SECTION
  2
BLOCKS
  0
BLOCK
  8
0
  2
$MODEL_SPACE
 70
     0
 10
0.0
 20
0.0
 30
0.0
  3
$MODEL_SPACE
  1

  0
ENDBLK
  5
21
  8
0
  0
BLOCK
 67
     1
  8
0
  2
$PAPER_SPACE
 70
     0
 10
0.0
 20
0.0
 30
0.0
  3
$PAPER_SPACE
  1

  0
ENDBLK
  5
1D
 67
     1
  8
0
  0
ENDSEC
  0
SECTION
  2
ENTITIES
  0
CIRCLE
  5
7B
  8
0
  6
CONTINUOUS
 62
     7
 10
-108.0
 20
4.0
 30
0.0
 40
1.5
  0
CIRCLE
  5
7C
  8
0
  6
CONTINUOUS
 62
     7
 10
-90.0
 20
4.0
 30
0.0
 40
1.5
  0
CIRCLE
  5
7D
  8
0
  6
CONTINUOUS
 62
     7
 10
-108.0
 20
-24.0
 30
0.0
 40
1.5
  0
CIRCLE
  5
7E
  8
0
  6
CONTINUOUS
 62
     7
 10
-90.0
 20
-24.0
 30
0.0
 40
1.5
  0
CIRCLE
  5
7F
  8
0
  6
CONTINUOUS
 62
     7
 10
4.0659930427
 20
-31.0749964482
 30
0.0
 40
1.549996899999996
  0
CIRCLE
  5
80
  8
0
  6
CONTINUOUS
 62
     7
 10
-21.9440057373
 20
-23.7129969482
 30
0.0
 40
1.549996899999989
  0
CIRCLE
  5
81
  8
0
  6
CONTINUOUS
 62
     7
 10
-54.3290057373
 20
-23.7129969482
 30
0.0
 40
1.549996899999996
  0
CIRCLE
  5
82
  8
0
  6
CONTINUOUS
 62
     7
 10
-85.9340047573
 20
-31.0749964482
 30
0.0
 40
1.549996900000025
  0
CIRCLE
  5
83
  8
0
  6
CONTINUOUS
 62
     7
 10
-85.9340047573
 20
-4.1549969482
 30
0.0
 40
1.549996900000025
  0
CIRCLE
  5
84
  8
0
  6
CONTINUOUS
 62
     7
 10
-85.9340047573
 20
30.4250024718
 30
0.0
 40
1.549996900000011
  0
CIRCLE
  5
85
  8
0
  6
CONTINUOUS
 62
     7
 10
4.5659945827
 20
-4.1549969482
 30
0.0
 40
1.499999539999993
  0
CIRCLE
  5
86
  8
0
  6
CONTINUOUS
 62
     7
 10
4.0659930427
 20
30.4250024718
 30
0.0
 40
1.549996900000004
  0
CIRCLE
  5
87
  8
0
  6
CONTINUOUS
 62
     7
 10
-26.2590059973
 20
24.6740030518
 30
0.0
 40
1.499999540000005
  0
CIRCLE
  5
88
  8
0
  6
CONTINUOUS
 62
     7
 10
-26.2590059973
 20
15.2760030518
 30
0.0
 40
1.499999540000001
  0
CIRCLE
  5
89
  8
0
  6
CONTINUOUS
 62
     7
 10
-43.2800057373
 20
-11.2669969482
 30
0.0
 40
1.49999953999999
  0
CIRCLE
  5
8A
  8
0
  6
CONTINUOUS
 62
     7
 10
-61.6950057373
 20
2.9570030518
 30
0.0
 40
1.549996899999996
  0
CIRCLE
  5
A5
  8
0
  6
CONTINUOUS
 62
     7
 10
-91.3127903737
 20
13.248903507
 30
0.0
 40
1.5
  0
CIRCLE
  5
A6
  8
0
  6
CONTINUOUS
 62
     7
 10
32.7127281755
 20
6.1577438468
 30
0.0
 40
1.5
  0
CIRCLE
  5
A7
  8
0
  6
CONTINUOUS
 62
     7
 10
53.4973378663
 20
0.8077604567
 30
0.0
 40
1.499999999999993
  0
CIRCLE
  5
A8
  8
0
  6
CONTINUOUS
 62
     7
 10
11.9281184847
 20
12.3417339206
 30
0.0
 40
1.5
  0
CIRCLE
  5
A9
  8
0
  6
CONTINUOUS
 62
     7
 10
53.4973378663
 20
-5.8422561532
 30
0.0
 40
1.499999999999993
  0
CIRCLE
  5
AA
  8
0
  6
CONTINUOUS
 62
     7
 10
-91.3127903737
 20
7.9779718754
 30
0.0
 40
1.5
  0
CIRCLE
  5
AB
  8
0
  6
CONTINUOUS
 62
     7
 10
11.9281184847
 20
24.8077604567
 30
0.0
 40
1.500000000000002
  0
CIRCLE
  5
AC
  8
0
  6
CONTINUOUS
 62
     7
 10
11.9281184847
 20
18.1577438468
 30
0.0
 40
1.500000000000002
  0
CIRCLE
  5
AD
  8
0
  6
CONTINUOUS
 62
     7
 10
32.7127281755
 20
12.8077604567
 30
0.0
 40
1.5
  0
CIRCLE
  5
AE
  8
0
  6
CONTINUOUS
 62
     7
 10
74.2819475571
 20
-11.1922395433
 30
0.0
 40
1.499999999999986
  0
CIRCLE
  5
AF
  8
0
  6
CONTINUOUS
 62
     7
 10
74.2819475571
 20
-17.8422561532
 30
0.0
 40
1.5
  0
CIRCLE
  5
B0
  8
0
  6
CONTINUOUS
 62
     7
 10
95.066557248
 20
-23.1922395433
 30
0.0
 40
1.5
  0
CIRCLE
  5
B1
  8
0
  6
CONTINUOUS
 62
     7
 10
95.066557248
 20
-29.8422561532
 30
0.0
 40
1.5
  0
CIRCLE
  5
B2
  8
0
  6
CONTINUOUS
 62
     7
 10
23.8179243994
 20
-24.6201938253
 30
0.0
 40
1.500000000000007
  0
CIRCLE
  5
B3
  8
0
  6
CONTINUOUS
 62
     7
 10
31.1394443365
 20
-23.8124333686
 30
0.0
 40
1.499999999999993
  0
CIRCLE
  5
B4
  8
0
  6
CONTINUOUS
 62
     7
 10
19.4767199577
 20
0.0
 30
0.0
 40
1.500000000000004
  0
CIRCLE
  5
B5
  8
0
  6
CONTINUOUS
 62
     7
 10
26.7982398949
 20
0.8077604567
 30
0.0
 40
1.5
  0
CIRCLE
  5
B6
  8
0
  6
CONTINUOUS
 62
     7
 10
11.9281184847
 20
5.1513827343
 30
0.0
 40
1.499999999999996
  0
LINE
  5
DB
  8
0
  6
CONTINUOUS
 62
     7
 10
-94.0
 20
20.0
 30
0.0
 11
-104.0
 21
20.0
 31
0.0
  0
LINE
  5
DC
  8
0
  6
CONTINUOUS
 62
     7
 10
-104.0
 20
20.0
 30
0.0
 11
-104.0
 21
10.0
 31
0.0
  0
LINE
  5
DD
  8
0
  6
CONTINUOUS
 62
     7
 10
-104.0
 20
10.0
 30
0.0
 11
-94.0
 21
10.0
 31
0.0
  0
LINE
  5
DE
  8
0
  6
CONTINUOUS
 62
     7
 10
-94.0
 20
10.0
 30
0.0
 11
-94.0
 21
20.0
 31
0.0
  0
LINE
  5
DF
  8
0
  6
CONTINUOUS
 62
     7
 10
-88.5
 20
-1.5
 30
0.0
 11
-109.5
 21
-1.5
 31
0.0
  0
LINE
  5
E0
  8
0
  6
CONTINUOUS
 62
     7
 10
-109.5
 20
-1.5
 30
0.0
 11
-109.5
 21
-18.5
 31
0.0
  0
LINE
  5
E1
  8
0
  6
CONTINUOUS
 62
     7
 10
-109.5
 20
-18.5
 30
0.0
 11
-88.5
 21
-18.5
 31
0.0
  0
LINE
  5
E2
  8
0
  6
CONTINUOUS
 62
     7
 10
-88.5
 20
-18.5
 30
0.0
 11
-88.5
 21
-1.5
 31
0.0
  0
LINE
  5
E3
  8
0
  6
CONTINUOUS
 62
     7
 10
-64.1251292013
 20
-20.2918738933
 30
0.0
 11
-77.2987294413
 21
-20.2918738933
 31
0.0
  0
LINE
  5
E4
  8
0
  6
CONTINUOUS
 62
     7
 10
-77.2987294413
 20
-20.2918738933
 30
0.0
 11
-77.2987294413
 21
-27.1338738933
 31
0.0
  0
LINE
  5
E5
  8
0
  6
CONTINUOUS
 62
     7
 10
-77.2987294413
 20
-27.1338738933
 30
0.0
 11
-64.1251292013
 21
-27.1338738933
 31
0.0
  0
LINE
  5
E6
  8
0
  6
CONTINUOUS
 62
     7
 10
-64.1251292013
 20
-27.1338738933
 30
0.0
 11
-64.1251292013
 21
-20.2918738933
 31
0.0
  0
LINE
  5
E7
  8
0
  6
CONTINUOUS
 62
     7
 10
2.3828741136
 20
4.2191276936
 30
0.0
 11
-34.4597250047
 21
4.2191276936
 31
0.0
  0
LINE
  5
E8
  8
0
  6
CONTINUOUS
 62
     7
 10
-34.4597250047
 20
4.2191276936
 30
0.0
 11
-34.4597250047
 21
-2.6229562297
 31
0.0
  0
LINE
  5
E9
  8
0
  6
CONTINUOUS
 62
     7
 10
-34.4597250047
 20
-2.6229562297
 30
0.0
 11
2.3828741136
 21
-2.6229562297
 31
0.0
  0
LINE
  5
EA
  8
0
  6
CONTINUOUS
 62
     7
 10
2.3828741136
 20
-2.6229562297
 30
0.0
 11
2.3828741136
 21
4.2191276936
 31
0.0
  0
LINE
  5
EB
  8
0
  6
CONTINUOUS
 62
     7
 10
-35.3979792779
 20
32.9650456234
 30
0.0
 11
-46.0715794379
 21
32.9650456234
 31
0.0
  0
LINE
  5
EC
  8
0
  6
CONTINUOUS
 62
     7
 10
-46.0715794379
 20
32.9650456234
 30
0.0
 11
-46.0715794379
 21
-2.6229562297
 31
0.0
  0
LINE
  5
ED
  8
0
  6
CONTINUOUS
 62
     7
 10
-46.0715794379
 20
-2.6229562297
 30
0.0
 11
-35.3979792779
 21
-2.6229562297
 31
0.0
  0
LINE
  5
EE
  8
0
  6
CONTINUOUS
 62
     7
 10
-35.3979792779
 20
-2.6229562297
 30
0.0
 11
-35.3979792779
 21
32.9650456234
 31
0.0
  0
LINE
  5
EF
  8
0
  6
CONTINUOUS
 62
     7
 10
-46.8979792779
 20
-3.1469538884
 30
0.0
 11
-57.5715794379
 21
-3.1469538884
 31
0.0
  0
LINE
  5
F0
  8
0
  6
CONTINUOUS
 62
     7
 10
-57.5715794379
 20
-3.1469538884
 30
0.0
 11
-57.5715794379
 21
-17.2279519573
 31
0.0
  0
LINE
  5
F1
  8
0
  6
CONTINUOUS
 62
     7
 10
-57.5715794379
 20
-17.2279519573
 30
0.0
 11
-46.8979792779
 21
-17.2279519573
 31
0.0
  0
LINE
  5
F2
  8
0
  6
CONTINUOUS
 62
     7
 10
-46.8979792779
 20
-17.2279519573
 30
0.0
 11
-46.8979792779
 21
-3.1469538884
 31
0.0
  0
LINE
  5
F3
  8
0
  6
CONTINUOUS
 62
     7
 10
-27.8031229757
 20
-20.2918738933
 30
0.0
 11
-15.7907262864
 21
-20.2918738933
 31
0.0
  0
LINE
  5
F4
  8
0
  6
CONTINUOUS
 62
     7
 10
-15.7907262864
 20
-20.2918738933
 30
0.0
 11
-15.7907262864
 21
-27.1338738933
 31
0.0
  0
LINE
  5
F5
  8
0
  6
CONTINUOUS
 62
     7
 10
-15.7907262864
 20
-27.1338738933
 30
0.0
 11
2.3828741136
 21
-27.1338738933
 31
0.0
  0
LINE
  5
F6
  8
0
  6
CONTINUOUS
 62
     7
 10
2.3828741136
 20
-27.1338738933
 30
0.0
 11
2.3828741136
 21
-13.2848777385
 31
0.0
  0
LINE
  5
F7
  8
0
  6
CONTINUOUS
 62
     7
 10
2.3828741136
 20
-13.2848777385
 30
0.0
 11
-46.0167242112
 21
-13.2848777385
 31
0.0
  0
LINE
  5
F8
  8
0
  6
CONTINUOUS
 62
     7
 10
-46.0167242112
 20
-13.2848777385
 30
0.0
 11
-46.0167242112
 21
-20.2918738933
 31
0.0
  0
LINE
  5
F9
  8
0
  6
CONTINUOUS
 62
     7
 10
-46.0167242112
 20
-20.2918738933
 30
0.0
 11
-40.9767232157
 21
-20.2918738933
 31
0.0
  0
LINE
  5
FA
  8
0
  6
CONTINUOUS
 62
     7
 10
-40.9767232157
 20
-20.2918738933
 30
0.0
 11
-40.9767232157
 21
-27.1338738933
 31
0.0
  0
LINE
  5
FB
  8
0
  6
CONTINUOUS
 62
     7
 10
-40.9767232157
 20
-27.1338738933
 30
0.0
 11
-27.8031229757
 21
-27.1338738933
 31
0.0
  0
LINE
  5
FC
  8
0
  6
CONTINUOUS
 62
     7
 10
-27.8031229757
 20
-27.1338738933
 30
0.0
 11
-27.8031229757
 21
-20.2918738933
 31
0.0
  0
LINE
  5
FD
  8
0
  6
CONTINUOUS
 62
     7
 10
112.0
 20
15.0
 30
0.0
 11
112.0
 21
35.0
 31
0.0
  0
LINE
  5
FE
  8
0
  6
CONTINUOUS
 62
     7
 10
116.0
 20
15.0
 30
0.0
 11
112.0
 21
15.0
 31
0.0
  0
LINE
  5
FF
  8
0
  6
CONTINUOUS
 62
     7
 10
116.0
 20
-15.0
 30
0.0
 11
116.0
 21
15.0
 31
0.0
  0
LINE
  5
100
  8
0
  6
CONTINUOUS
 62
     7
 10
112.0
 20
-15.0
 30
0.0
 11
116.0
 21
-15.0
 31
0.0
  0
LINE
  5
101
  8
0
  6
CONTINUOUS
 62
     7
 10
112.0
 20
-35.0
 30
0.0
 11
112.0
 21
-15.0
 31
0.0
  0
LINE
  5
102
  8
0
  6
CONTINUOUS
 62
     7
 10
80.0
 20
-35.0
 30
0.0
 11
112.0
 21
-35.0
 31
0.0
  0
LINE
  5
103
  8
0
  6
CONTINUOUS
 62
     7
 10
80.0
 20
-39.0
 30
0.0
 11
80.0
 21
-35.0
 31
0.0
  0
LINE
  5
104
  8
0
  6
CONTINUOUS
 62
     7
 10
50.0
 20
-39.0
 30
0.0
 11
80.0
 21
-39.0
 31
0.0
  0
LINE
  5
105
  8
0
  6
CONTINUOUS
 62
     7
 10
50.0
 20
-35.0
 30
0.0
 11
50.0
 21
-39.0
 31
0.0
  0
LINE
  5
106
  8
0
  6
CONTINUOUS
 62
     7
 10
15.0
 20
-35.0
 30
0.0
 11
50.0
 21
-35.0
 31
0.0
  0
LINE
  5
107
  8
0
  6
CONTINUOUS
 62
     7
 10
15.0
 20
-39.0
 30
0.0
 11
15.0
 21
-35.0
 31
0.0
  0
LINE
  5
108
  8
0
  6
CONTINUOUS
 62
     7
 10
-15.0
 20
-39.0
 30
0.0
 11
15.0
 21
-39.0
 31
0.0
  0
LINE
  5
109
  8
0
  6
CONTINUOUS
 62
     7
 10
-15.0
 20
-35.0
 30
0.0
 11
-15.0
 21
-39.0
 31
0.0
  0
LINE
  5
10A
  8
0
  6
CONTINUOUS
 62
     7
 10
-50.0
 20
-35.0
 30
0.0
 11
-15.0
 21
-35.0
 31
0.0
  0
LINE
  5
10B
  8
0
  6
CONTINUOUS
 62
     7
 10
-50.0
 20
-39.0
 30
0.0
 11
-50.0
 21
-35.0
 31
0.0
  0
LINE
  5
10C
  8
0
  6
CONTINUOUS
 62
     7
 10
-80.0
 20
-39.0
 30
0.0
 11
-50.0
 21
-39.0
 31
0.0
  0
LINE
  5
10D
  8
0
  6
CONTINUOUS
 62
     7
 10
-80.0
 20
-35.0
 30
0.0
 11
-80.0
 21
-39.0
 31
0.0
  0
LINE
  5
10E
  8
0
  6
CONTINUOUS
 62
     7
 10
-112.0
 20
-35.0
 30
0.0
 11
-80.0
 21
-35.0
 31
0.0
  0
LINE
  5
10F
  8
0
  6
CONTINUOUS
 62
     7
 10
-112.0
 20
-15.0
 30
0.0
 11
-112.0
 21
-35.0
 31
0.0
  0
LINE
  5
110
  8
0
  6
CONTINUOUS
 62
     7
 10
-116.0
 20
-15.0
 30
0.0
 11
-112.0
 21
-15.0
 31
0.0
  0
LINE
  5
111
  8
0
  6
CONTINUOUS
 62
     7
 10
-116.0
 20
15.0
 30
0.0
 11
-116.0
 21
-15.0
 31
0.0
  0
LINE
  5
112
  8
0
  6
CONTINUOUS
 62
     7
 10
-112.0
 20
15.0
 30
0.0
 11
-116.0
 21
15.0
 31
0.0
  0
LINE
  5
113
  8
0
  6
CONTINUOUS
 62
     7
 10
-112.0
 20
35.0
 30
0.0
 11
-112.0
 21
15.0
 31
0.0
  0
LINE
  5
114
  8
0
  6
CONTINUOUS
 62
     7
 10
-80.0
 20
35.0
 30
0.0
 11
-112.0
 21
35.0
 31
0.0
  0
LINE
  5
115
  8
0
  6
CONTINUOUS
 62
     7
 10
-80.0
 20
39.0
 30
0.0
 11
-80.0
 21
35.0
 31
0.0
  0
LINE
  5
116
  8
0
  6
CONTINUOUS
 62
     7
 10
-50.0
 20
39.0
 30
0.0
 11
-80.0
 21
39.0
 31
0.0
  0
LINE
  5
117
  8
0
  6
CONTINUOUS
 62
     7
 10
-50.0
 20
35.0
 30
0.0
 11
-50.0
 21
39.0
 31
0.0
  0
LINE
  5
118
  8
0
  6
CONTINUOUS
 62
     7
 10
-15.0
 20
35.0
 30
0.0
 11
-50.0
 21
35.0
 31
0.0
  0
LINE
  5
119
  8
0
  6
CONTINUOUS
 62
     7
 10
-15.0
 20
39.0
 30
0.0
 11
-15.0
 21
35.0
 31
0.0
  0
LINE
  5
11A
  8
0
  6
CONTINUOUS
 62
     7
 10
15.0
 20
39.0
 30
0.0
 11
-15.0
 21
39.0
 31
0.0
  0
LINE
  5
11B
  8
0
  6
CONTINUOUS
 62
     7
 10
15.0
 20
35.0
 30
0.0
 11
15.0
 21
39.0
 31
0.0
  0
LINE
  5
11C
  8
0
  6
CONTINUOUS
 62
     7
 10
50.0
 20
35.0
 30
0.0
 11
15.0
 21
35.0
 31
0.0
  0
LINE
  5
11D
  8
0
  6
CONTINUOUS
 62
     7
 10
50.0
 20
39.0
 30
0.0
 11
50.0
 21
35.0
 31
0.0
  0
LINE
  5
11E
  8
0
  6
CONTINUOUS
 62
     7
 10
80.0
 20
39.0
 30
0.0
 11
50.0
 21
39.0
 31
0.0
  0
LINE
  5
11F
  8
0
  6
CONTINUOUS
 62
     7
 10
80.0
 20
35.0
 30
0.0
 11
80.0
 21
39.0
 31
0.0
  0
LINE
  5
120
  8
0
  6
CONTINUOUS
 62
     7
 10
112.0
 20
35.0
 30
0.0
 11
80.0
 21
35.0
 31
0.0
  0
ENDSEC
  0
EOF
